module blob_api

go 1.18

require (
	github.com/Masterminds/squirrel v1.4.0
	github.com/alecthomas/kingpin v2.2.6+incompatible
	github.com/fatih/structs v1.1.0
	github.com/go-chi/chi v4.1.2+incompatible
	github.com/go-ozzo/ozzo-validation v3.6.0+incompatible
	github.com/go-ozzo/ozzo-validation/v4 v4.3.0
	github.com/pkg/errors v0.9.1
	github.com/rubenv/sql-migrate v1.1.2
	github.com/spf13/cast v1.3.1
	gitlab.com/distributed_lab/ape v1.7.0
	gitlab.com/distributed_lab/kit v1.11.0
	gitlab.com/distributed_lab/logan v3.8.0+incompatible
	gitlab.com/distributed_lab/urlval v3.0.0+incompatible
)

require (
	github.com/alecthomas/template v0.0.0-20190718012654-fb15b899a751 // indirect
	github.com/alecthomas/units v0.0.0-20211218093645-b94a6e3cc137 // indirect
	github.com/asaskevich/govalidator v0.0.0-20200108200545-475eaeb16496 // indirect
	github.com/certifi/gocertifi v0.0.0-20200211180108-c7c1fbc02894 // indirect
	github.com/fsnotify/fsnotify v1.4.9 // indirect
	github.com/getsentry/raven-go v0.2.0 // indirect
	github.com/getsentry/sentry-go v0.7.0 // indirect
	github.com/go-gorp/gorp/v3 v3.0.2 // indirect
	github.com/google/jsonapi v0.0.0-20200226002910-c8283f632fb7 // indirect
	github.com/hashicorp/hcl v1.0.0 // indirect
	github.com/jmoiron/sqlx v1.2.0 // indirect
	github.com/lann/builder v0.0.0-20180802200727-47ae307949d0 // indirect
	github.com/lann/ps v0.0.0-20150810152359-62de8c46ede0 // indirect
	github.com/lib/pq v1.10.0 // indirect
	github.com/magiconair/properties v1.8.5 // indirect
	github.com/mitchellh/mapstructure v1.4.1 // indirect
	github.com/oklog/ulid v1.3.1 // indirect
	github.com/pelletier/go-toml v1.9.3 // indirect
	github.com/sirupsen/logrus v1.8.1 // indirect
	github.com/spf13/afero v1.6.0 // indirect
	github.com/spf13/jwalterweatherman v1.1.0 // indirect
	github.com/spf13/pflag v1.0.5 // indirect
	github.com/spf13/viper v1.8.1 // indirect
	github.com/subosito/gotenv v1.2.0 // indirect
	github.com/xr9kayu/logrus v0.7.2 // indirect
	gitlab.com/distributed_lab/figure v2.1.0+incompatible // indirect
	gitlab.com/distributed_lab/lorem v0.2.0 // indirect
	gitlab.com/distributed_lab/running v0.0.0-20200706131153-4af0e83eb96c // indirect
	golang.org/x/sys v0.0.0-20210809222454-d867a43fc93e // indirect
	golang.org/x/text v0.3.6 // indirect
	gopkg.in/ini.v1 v1.62.0 // indirect
	gopkg.in/yaml.v2 v2.4.0 // indirect
)
